…
``` r
month1_day1 <- dplyr::filter(flights, month == 1, day == 1)

flights %>% filter(month == 11 | month == 12)
```

    ## # A tibble: 55,403 × 19
    ##     year month   day dep_time sched_dep_time dep_delay arr_time sched_arr_time
    ##    <int> <int> <int>    <int>          <int>     <dbl>    <int>          <int>
    ##  1  2013    11     1        5           2359         6      352            345
    ##  2  2013    11     1       35           2250       105      123           2356
    ##  3  2013    11     1      455            500        -5      641            651
    ##  4  2013    11     1      539            545        -6      856            827
    ##  5  2013    11     1      542            545        -3      831            855
    ##  6  2013    11     1      549            600       -11      912            923
    ##  7  2013    11     1      550            600       -10      705            659
    ##  8  2013    11     1      554            600        -6      659            701
    ##  9  2013    11     1      554            600        -6      826            827
    ## 10  2013    11     1      554            600        -6      749            751
    ## # … with 55,393 more rows, and 11 more variables: arr_delay <dbl>,
    ## #   carrier <chr>, flight <int>, tailnum <chr>, origin <chr>, dest <chr>,
    ## #   air_time <dbl>, distance <dbl>, hour <dbl>, minute <dbl>, time_hour <dttm>

``` r
flights %>% filter(month %in% c(11, 12)) %>% head() %>% View() #pipe

#아래 두 식은 동일한 표현이다.
filter(flights, !(arr_delay > 120 | dep_delay > 120))
```

    ## # A tibble: 316,050 × 19
    ##     year month   day dep_time sched_dep_time dep_delay arr_time sched_arr_time
    ##    <int> <int> <int>    <int>          <int>     <dbl>    <int>          <int>
    ##  1  2013     1     1      517            515         2      830            819
    ##  2  2013     1     1      533            529         4      850            830
    ##  3  2013     1     1      542            540         2      923            850
    ##  4  2013     1     1      544            545        -1     1004           1022
    ##  5  2013     1     1      554            600        -6      812            837
    ##  6  2013     1     1      554            558        -4      740            728
    ##  7  2013     1     1      555            600        -5      913            854
    ##  8  2013     1     1      557            600        -3      709            723
    ##  9  2013     1     1      557            600        -3      838            846
    ## 10  2013     1     1      558            600        -2      753            745
    ## # … with 316,040 more rows, and 11 more variables: arr_delay <dbl>,
    ## #   carrier <chr>, flight <int>, tailnum <chr>, origin <chr>, dest <chr>,
    ## #   air_time <dbl>, distance <dbl>, hour <dbl>, minute <dbl>, time_hour <dttm>

``` r
filter(flights, arr_delay <= 120 & dep_delay <= 120) #드모르간 법칙
```

    ## # A tibble: 316,050 × 19
    ##     year month   day dep_time sched_dep_time dep_delay arr_time sched_arr_time
    ##    <int> <int> <int>    <int>          <int>     <dbl>    <int>          <int>
    ##  1  2013     1     1      517            515         2      830            819
    ##  2  2013     1     1      533            529         4      850            830
    ##  3  2013     1     1      542            540         2      923            850
    ##  4  2013     1     1      544            545        -1     1004           1022
    ##  5  2013     1     1      554            600        -6      812            837
    ##  6  2013     1     1      554            558        -4      740            728
    ##  7  2013     1     1      555            600        -5      913            854
    ##  8  2013     1     1      557            600        -3      709            723
    ##  9  2013     1     1      557            600        -3      838            846
    ## 10  2013     1     1      558            600        -2      753            745
    ## # … with 316,040 more rows, and 11 more variables: arr_delay <dbl>,
    ## #   carrier <chr>, flight <int>, tailnum <chr>, origin <chr>, dest <chr>,
    ## #   air_time <dbl>, distance <dbl>, hour <dbl>, minute <dbl>, time_hour <dttm>
…
    ##   x
    ## 1 3

1)  dest가 IAH 또는 HOU으로 운항하는 행을 찾아라.
2)  carrier가 UA 혹은 AA 혹은 DL 인 행을 찾아라.

``` r
filter(flights, dest == "IAH" | dest == "HOU")
```

    ## # A tibble: 9,313 × 19
    ##     year month   day dep_time sched_dep_time dep_delay arr_time sched_arr_time
    ##    <int> <int> <int>    <int>          <int>     <dbl>    <int>          <int>
    ##  1  2013     1     1      517            515         2      830            819
    ##  2  2013     1     1      533            529         4      850            830
    ##  3  2013     1     1      623            627        -4      933            932
    ##  4  2013     1     1      728            732        -4     1041           1038
    ##  5  2013     1     1      739            739         0     1104           1038
    ##  6  2013     1     1      908            908         0     1228           1219
    ##  7  2013     1     1     1028           1026         2     1350           1339
    ##  8  2013     1     1     1044           1045        -1     1352           1351
    ##  9  2013     1     1     1114            900       134     1447           1222
    ## 10  2013     1     1     1205           1200         5     1503           1505
    ## # … with 9,303 more rows, and 11 more variables: arr_delay <dbl>,
    ## #   carrier <chr>, flight <int>, tailnum <chr>, origin <chr>, dest <chr>,
    ## #   air_time <dbl>, distance <dbl>, hour <dbl>, minute <dbl>, time_hour <dttm>

``` r
filter(flights, carrier %in% c("UA", "AA", "DL"))
```

    ## # A tibble: 139,504 × 19
    ##     year month   day dep_time sched_dep_time dep_delay arr_time sched_arr_time
    ##    <int> <int> <int>    <int>          <int>     <dbl>    <int>          <int>
    ##  1  2013     1     1      517            515         2      830            819
    ##  2  2013     1     1      533            529         4      850            830
    ##  3  2013     1     1      542            540         2      923            850
    ##  4  2013     1     1      554            600        -6      812            837
    ##  5  2013     1     1      554            558        -4      740            728
    ##  6  2013     1     1      558            600        -2      753            745
    ##  7  2013     1     1      558            600        -2      924            917
    ##  8  2013     1     1      558            600        -2      923            937
    ##  9  2013     1     1      559            600        -1      941            910
    ## 10  2013     1     1      559            600        -1      854            902
    ## # … with 139,494 more rows, and 11 more variables: arr_delay <dbl>,
    ## #   carrier <chr>, flight <int>, tailnum <chr>, origin <chr>, dest <chr>,
    ## #   air_time <dbl>, distance <dbl>, hour <dbl>, minute <dbl>, time_hour <dttm>

## arrange()로 행 정렬하기

``` r
# year, month, day 순으로로 오름차순 정렬
arrange(flights, year, month, day)
```

    ## # A tibble: 336,776 × 19
    ##     year month   day dep_time sched_dep_time dep_delay arr_time sched_arr_time
    ##    <int> <int> <int>    <int>          <int>     <dbl>    <int>          <int>
    ##  1  2013     1     1      517            515         2      830            819
    ##  2  2013     1     1      533            529         4      850            830
    ##  3  2013     1     1      542            540         2      923            850
    ##  4  2013     1     1      544            545        -1     1004           1022
    ##  5  2013     1     1      554            600        -6      812            837
    ##  6  2013     1     1      554            558        -4      740            728
    ##  7  2013     1     1      555            600        -5      913            854
    ##  8  2013     1     1      557            600        -3      709            723
    ##  9  2013     1     1      557            600        -3      838            846
    ## 10  2013     1     1      558            600        -2      753            745
    ## # … with 336,766 more rows, and 11 more variables: arr_delay <dbl>,
    ## #   carrier <chr>, flight <int>, tailnum <chr>, origin <chr>, dest <chr>,
    ## #   air_time <dbl>, distance <dbl>, hour <dbl>, minute <dbl>, time_hour <dttm>

``` r
# month를 내림차순으로 정렬
arrange(flights, year, desc(month))
```

    ## # A tibble: 336,776 × 19
    ##     year month   day dep_time sched_dep_time dep_delay arr_time sched_arr_time
    ##    <int> <int> <int>    <int>          <int>     <dbl>    <int>          <int>
    ##  1  2013    12     1       13           2359        14      446            445
    ##  2  2013    12     1       17           2359        18      443            437
    ##  3  2013    12     1      453            500        -7      636            651
    ##  4  2013    12     1      520            515         5      749            808
    ##  5  2013    12     1      536            540        -4      845            850
    ##  6  2013    12     1      540            550       -10     1005           1027
    ##  7  2013    12     1      541            545        -4      734            755
    ##  8  2013    12     1      546            545         1      826            835
    ##  9  2013    12     1      549            600       -11      648            659
    ## 10  2013    12     1      550            600       -10      825            854
    ## # … with 336,766 more rows, and 11 more variables: arr_delay <dbl>,
    ## #   carrier <chr>, flight <int>, tailnum <chr>, origin <chr>, dest <chr>,
    ## #   air_time <dbl>, distance <dbl>, hour <dbl>, minute <dbl>, time_hour <dttm>

``` r
# NA 값 가장 앞으
arrange(flights, year, desc(is.na(dep_time)))
```

    ## # A tibble: 336,776 × 19
    ##     year month   day dep_time sched_dep_time dep_delay arr_time sched_arr_time
    ##    <int> <int> <int>    <int>          <int>     <dbl>    <int>          <int>
    ##  1  2013     1     1       NA           1630        NA       NA           1815
    ##  2  2013     1     1       NA           1935        NA       NA           2240
    ##  3  2013     1     1       NA           1500        NA       NA           1825
    ##  4  2013     1     1       NA            600        NA       NA            901
    ##  5  2013     1     2       NA           1540        NA       NA           1747
    ##  6  2013     1     2       NA           1620        NA       NA           1746
    ##  7  2013     1     2       NA           1355        NA       NA           1459
    ##  8  2013     1     2       NA           1420        NA       NA           1644
    ##  9  2013     1     2       NA           1321        NA       NA           1536
    ## 10  2013     1     2       NA           1545        NA       NA           1910
    ## # … with 336,766 more rows, and 11 more variables: arr_delay <dbl>,
    ## #   carrier <chr>, flight <int>, tailnum <chr>, origin <chr>, dest <chr>,
    ## #   air_time <dbl>, distance <dbl>, hour <dbl>, minute <dbl>, time_hour <dttm>
…
starts_with(“char”) : 해당 문자로 시작하는 변수에 매칭

ends_with(“char”) : 해당 문자로 끝나는 변수에 매칭

contains(“char”) : 해당 문자를 포함하는 변수에 매칭

matches(“(.)\\1”) : 정규표현식에 매칭되는 변수 선택

num_range(“x”, 1:3) : x1, x2, x3에 매칭되는 변수 선택

``` r
dplyr::select(flights, year, month, day)
```

    ## # A tibble: 336,776 × 3
    ##     year month   day
    ##    <int> <int> <int>
    ##  1  2013     1     1
    ##  2  2013     1     1
    ##  3  2013     1     1
    ##  4  2013     1     1
    ##  5  2013     1     1
    ##  6  2013     1     1
    ##  7  2013     1     1
    ##  8  2013     1     1
    ##  9  2013     1     1
    ## 10  2013     1     1
    ## # … with 336,766 more rows

``` r
dplyr::select(flights, year:day)
```

    ## # A tibble: 336,776 × 3
    ##     year month   day
    ##    <int> <int> <int>
    ##  1  2013     1     1
    ##  2  2013     1     1
    ##  3  2013     1     1
    ##  4  2013     1     1
    ##  5  2013     1     1
    ##  6  2013     1     1
    ##  7  2013     1     1
    ##  8  2013     1     1
    ##  9  2013     1     1
    ## 10  2013     1     1
    ## # … with 336,766 more rows

``` r
dplyr::select(flights, -c(year:day)) #선택 열 제외
```

    ## # A tibble: 336,776 × 16
    ##    dep_time sched_dep_time dep_delay arr_time sched_arr_time arr_delay carrier
    ##       <int>          <int>     <dbl>    <int>          <int>     <dbl> <chr>  
    ##  1      517            515         2      830            819        11 UA     
    ##  2      533            529         4      850            830        20 UA     
    ##  3      542            540         2      923            850        33 AA     
    ##  4      544            545        -1     1004           1022       -18 B6     
    ##  5      554            600        -6      812            837       -25 DL     
    ##  6      554            558        -4      740            728        12 UA     
    ##  7      555            600        -5      913            854        19 B6     
    ##  8      557            600        -3      709            723       -14 EV     
    ##  9      557            600        -3      838            846        -8 B6     
    ## 10      558            600        -2      753            745         8 AA     
    ## # … with 336,766 more rows, and 9 more variables: flight <int>, tailnum <chr>,
    ## #   origin <chr>, dest <chr>, air_time <dbl>, distance <dbl>, hour <dbl>,
    ## #   minute <dbl>, time_hour <dttm>

``` r
dplyr::select(flights, starts_with("d"))
```

    ## # A tibble: 336,776 × 5
    ##      day dep_time dep_delay dest  distance
    ##    <int>    <int>     <dbl> <chr>    <dbl>
    ##  1     1      517         2 IAH       1400
    ##  2     1      533         4 IAH       1416
    ##  3     1      542         2 MIA       1089
    ##  4     1      544        -1 BQN       1576
    ##  5     1      554        -6 ATL        762
    ##  6     1      554        -4 ORD        719
    ##  7     1      555        -5 FLL       1065
    ##  8     1      557        -3 IAD        229
    ##  9     1      557        -3 MCO        944
    ## 10     1      558        -2 ORD        733
    ## # … with 336,766 more rows
…
``` r
dplyr::mutate(sample_flights,
              gain = arr_delay - dep_delay,
              speed = distance / air_time * 60,
              hours = air_time / 60,
              gain_per_hour = gain / hours)
```

    ## # A tibble: 336,776 × 11
    ##     year month   day dep_delay arr_delay distance air_time  gain speed hours
    ##    <int> <int> <int>     <dbl>     <dbl>    <dbl>    <dbl> <dbl> <dbl> <dbl>
    ##  1  2013     1     1         2        11     1400      227     9  370. 3.78 
    ##  2  2013     1     1         4        20     1416      227    16  374. 3.78 
    ##  3  2013     1     1         2        33     1089      160    31  408. 2.67 
    ##  4  2013     1     1        -1       -18     1576      183   -17  517. 3.05 
    ##  5  2013     1     1        -6       -25      762      116   -19  394. 1.93 
    ##  6  2013     1     1        -4        12      719      150    16  288. 2.5  
    ##  7  2013     1     1        -5        19     1065      158    24  404. 2.63 
    ##  8  2013     1     1        -3       -14      229       53   -11  259. 0.883
    ##  9  2013     1     1        -3        -8      944      140    -5  405. 2.33 
    ## 10  2013     1     1        -2         8      733      138    10  319. 2.3  
    ## # … with 336,766 more rows, and 1 more variable: gain_per_hour <dbl>

``` r
dplyr::transmute(sample_flights,
              gain = arr_delay - dep_delay,
              speed = distance / air_time * 60,
              hours = air_time / 60,
              gain_per_hour = gain / hours)
```

    ## # A tibble: 336,776 × 4
    ##     gain speed hours gain_per_hour
    ##    <dbl> <dbl> <dbl>         <dbl>
    ##  1     9  370. 3.78           2.38
    ##  2    16  374. 3.78           4.23
    ##  3    31  408. 2.67          11.6 
    ##  4   -17  517. 3.05          -5.57
    ##  5   -19  394. 1.93          -9.83
    ##  6    16  288. 2.5            6.4 
    ##  7    24  404. 2.63           9.11
    ##  8   -11  259. 0.883        -12.5 
    ##  9    -5  405. 2.33          -2.14
    ## 10    10  319. 2.3            4.35
    ## # … with 336,766 more rows

``` r
dplyr::mutate(sample_flights,
              dummy_month = ifelse(month > 6, 1, 0))
```

    ## # A tibble: 336,776 × 8
    ##     year month   day dep_delay arr_delay distance air_time dummy_month
    ##    <int> <int> <int>     <dbl>     <dbl>    <dbl>    <dbl>       <dbl>
    ##  1  2013     1     1         2        11     1400      227           0
    ##  2  2013     1     1         4        20     1416      227           0
    ##  3  2013     1     1         2        33     1089      160           0
    ##  4  2013     1     1        -1       -18     1576      183           0
    ##  5  2013     1     1        -6       -25      762      116           0
    ##  6  2013     1     1        -4        12      719      150           0
    ##  7  2013     1     1        -5        19     1065      158           0
    ##  8  2013     1     1        -3       -14      229       53           0
    ##  9  2013     1     1        -3        -8      944      140           0
    ## 10  2013     1     1        -2         8      733      138           0
    ## # … with 336,766 more rows

cumsum() : 누적 합계 cumprod() : 누적 곱셈 cummin() : 누적 최솟값
cummax() : 누적 최댓값 cummean() : 누적 평균

``` r
dplyr::mutate(sample_flights,
              cum_min = cummin(dep_delay),
              cum_max = cummax(dep_delay),
              cum_sum = cumsum(dep_delay))
```

    ## # A tibble: 336,776 × 10
    ##     year month   day dep_delay arr_delay distance air_time cum_min cum_max
    ##    <int> <int> <int>     <dbl>     <dbl>    <dbl>    <dbl>   <dbl>   <dbl>
    ##  1  2013     1     1         2        11     1400      227       2       2
    ##  2  2013     1     1         4        20     1416      227       2       4
    ##  3  2013     1     1         2        33     1089      160       2       4
    ##  4  2013     1     1        -1       -18     1576      183      -1       4
    ##  5  2013     1     1        -6       -25      762      116      -6       4
    ##  6  2013     1     1        -4        12      719      150      -6       4
    ##  7  2013     1     1        -5        19     1065      158      -6       4
    ##  8  2013     1     1        -3       -14      229       53      -6       4
    ##  9  2013     1     1        -3        -8      944      140      -6       4
    ## 10  2013     1     1        -2         8      733      138      -6       4
    ## # … with 336,766 more rows, and 1 more variable: cum_sum <dbl>
…
